bayesf22 Notebook - Reading notes
…
Tidyverse style from Solomon Kurz

globe_tossing <- tibble(p_grid = seq(from = 0, to = 1, length.out = 1001),
                        prior_uniform = 1) %>%  # prob_p_uniform from earlier
  mutate(prior_beta = dbeta(p_grid, shape1 = 3, shape2 = 1)) %>%  # prob_p_beta from earlier
  mutate(likelihood = dbinom(6, size = 9, prob = p_grid)) %>%   # prob_data from earlier
  mutate(posterior_uniform = (likelihood * prior_uniform) / sum(likelihood * prior_uniform),
         posterior_beta = (likelihood * prior_beta) / sum(likelihood * prior_beta))
globe_tossing
## # A tibble: 1,001 × 6
##    p_grid prior_uniform prior_beta likelihood posterior_uniform posterior_beta
##     <dbl>         <dbl>      <dbl>      <dbl>             <dbl>          <dbl>
##  1  0                 1  0           0                 0              0       
##  2  0.001             1  0.000003    8.37e-17          8.37e-19       1.97e-24
##  3  0.002             1  0.000012    5.34e-15          5.34e-17       5.04e-22
##  4  0.003             1  0.0000270   6.07e-14          6.07e-16       1.29e-20
##  5  0.004             1  0.000048    3.40e-13          3.40e-15       1.28e-19
##  6  0.005             1  0.000075    1.29e-12          1.29e-14       7.62e-19
##  7  0.006             1  0.000108    3.85e-12          3.85e-14       3.27e-18
##  8  0.007             1  0.000147    9.68e-12          9.68e-14       1.12e-17
##  9  0.008             1  0.000192    2.15e-11          2.15e-13       3.24e-17
## 10  0.009             1  0.000243    4.34e-11          4.34e-13       8.30e-17
## # … with 991 more rows
…
