bayesf22 Notebook - Chapter 3 exercises
…
# Plot stuff
clrs <- MetBrewer::met.brewer("Lakota", 6)
theme_set(theme_bw())

# Seed stuff
BAYES_SEED <- 1234
set.seed(1234)

This births data shows the sex of the first and second children born to 100 different families (1 = boy, 2 = girl). The first family had a boy then a girl, the second had a girl and then a boy, the thrid had no boys, etc.

data(homeworkch3, package = "rethinking")

all_births <- tibble(birth1, birth2)
all_births
## # A tibble: 100 × 2
##    birth1 birth2
##     <dbl>  <dbl>
##  1      1      0
##  2      0      1
##  3      0      0
##  4      0      1
##  5      1      0
##  6      1      1
##  7      0      1
##  8      1      1
##  9      0      0
## 10      1      0
## # … with 90 more rows

In these exercises we don’t care about birth order, so we’ll pool all the births into one long 200-birth vector:

births <- all_births %>% 
  pivot_longer(cols = everything(), values_to = "boy")
births
## # A tibble: 200 × 2
##    name     boy
##    <chr>  <dbl>
##  1 birth1     1
##  2 birth2     0
##  3 birth1     0
##  4 birth2     1
##  5 birth1     0
##  6 birth2     0
##  7 birth1     0
##  8 birth2     1
##  9 birth1     1
## 10 birth2     0
## # … with 190 more rows
…
n_boys <- pull(births_summary, n_boys)
prop_boys <- pull(births_summary, prop_boys)
total_births <- nrow(births)
n_girls <- total_births - n_boys

3H1

Using grid approximation, compute the posterior distribution for the probability of being a boy. Assume a uniform prior probability. Which parameter value maximizes the posterior probability?

birth_grid <- tibble(p_grid = seq(0, 1, length.out = 1001),
                     prior_uniform = 1) %>% 
  mutate(likelihood = dbinom(n_boys, size = total_births, prob = p_grid)) %>% 
  mutate(posterior_uniform = (likelihood * prior_uniform) / sum(likelihood * prior_uniform))
birth_grid
## # A tibble: 1,001 × 4
##    p_grid prior_uniform likelihood posterior_uniform
##     <dbl>         <dbl>      <dbl>             <dbl>
##  1  0                 1  0                 0        
##  2  0.001             1  2.48e-275         4.98e-276
##  3  0.002             1  5.89e-242         1.18e-242
##  4  0.003             1  1.89e-222         3.81e-223
##  5  0.004             1  1.28e-208         2.57e-209
##  6  0.005             1  6.68e-198         1.34e-198
##  7  0.006             1  3.76e-189         7.56e-190
##  8  0.007             1  9.28e-182         1.86e-182
##  9  0.008             1  2.32e-175         4.66e-176
## 10  0.009             1  1.01e-169         2.03e-170
## # … with 991 more rows
…
