bayesf22 Notebook - Video #4 code
…
luxury_post_pred_diff_stan <- model_luxury_stan %>% 
  spread_draws(w_do_s[i])

luxury_post_pred_diff_stan %>% 
  mean_hdci()
## # A tibble: 346 × 7
##        i w_do_s .lower .upper .width .point .interval
##    <int>  <dbl>  <dbl>  <dbl>  <dbl> <chr>  <chr>    
##  1     1   6.79  -8.96   21.5   0.95 mean   hdci     
##  2     2   6.86  -8.69   22.2   0.95 mean   hdci     
##  3     3   6.79  -8.46   22.6   0.95 mean   hdci     
##  4     4   6.86  -9.38   21.3   0.95 mean   hdci     
##  5     5   6.71  -8.26   22.7   0.95 mean   hdci     
##  6     6   6.85  -8.15   22.8   0.95 mean   hdci     
##  7     7   6.78  -8.74   22.4   0.95 mean   hdci     
##  8     8   6.85  -8.36   22.6   0.95 mean   hdci     
##  9     9   6.82  -8.79   21.9   0.95 mean   hdci     
## 10    10   6.80  -8.53   21.8   0.95 mean   hdci     
## # … with 336 more rows
…
