bayesf22 Notebook - Video #7 code
…
Hey hey, Idaho and Maine have much lower PSIS k values now. There are some weird observations with really high WAIC values for some reason:

plot_data |> 
  arrange(desc(p_waic))
## # A tibble: 50 × 4
##        psis p_waic Location     Loc  
##       <dbl>  <dbl> <fct>        <fct>
##  1  0.0790   0.709 Wyoming      WY   
##  2 -0.00816  0.608 Utah         UT   
##  3  0.00618  0.344 Arkansas     AR   
##  4  0.0451   0.327 North Dakota ND   
##  5  0.0223   0.309 Alaska       AK   
##  6  0.0775   0.244 Maine        ME   
##  7  0.102    0.240 Rhode Island RI   
##  8  0.0301   0.215 Idaho        ID   
##  9  0.181    0.212 Minnesota    MN   
## 10  0.0640   0.211 New Jersey   NJ   
## # … with 40 more rows
…
