bayesf22 Notebook - Reading notes
…
That would work great and the results from Stan would include 1000 predictions for the number of Gen X artists. But it feels a little excessive to keep rerunning the original 14-artworks model over and over for different numbers of new artworks.

So instead we can use R to build the posterior predictions, since we have all the posterior values of π in the MCMC chains, and since all we’re really doing with Stan is using Stan’s version of rbinom() anyway (binomial_rng()).

predicted_genx_after_20_stan <- pi_stan_samples |> 
  spread_draws(pi) |> 
  mutate(.prediction = rbinom(n(), size = 20, prob = pi)) 

predicted_genx_after_20_stan_summarized <- predicted_genx_after_20_stan |> 
  group_by(.prediction) |> 
  summarize(n = n()) |> 
  mutate(prop = n / sum(n))
predicted_genx_after_20_stan
## # A tibble: 10,000 × 5
##    .chain .iteration .draw    pi .prediction
##     <int>      <int> <int> <dbl>       <int>
##  1      1          1     1 0.157           4
##  2      1          2     2 0.151           1
##  3      1          3     3 0.189           5
##  4      1          4     4 0.226           6
##  5      1          5     5 0.192           3
##  6      1          6     6 0.210           5
##  7      1          7     7 0.210           4
##  8      1          8     8 0.174           5
##  9      1          9     9 0.157           5
## 10      1         10    10 0.153           3
## # … with 9,990 more rows
…
