bayesf22 Notebook - Reading notes
…
Looks linear to me.

But just eyeballing it isn’t great. We can test the assumptions more formally with a posterior predictive check:

If the combined model assumptions are reasonable, then our posterior model should be able to simulate ridership data that’s similar to the original data.

We can check that by using the \(\beta_0\), \(\beta_1\), and \(\sigma\) parameters from the chains to generate predictions for each of the MCMC draws. Here’s how that works behind the scenes:

We have 20,000 sets of intercepts, slopes, and sigmas

bike_brms |> 
  spread_draws(b_Intercept, b_temp_feel_c, sigma) |> 
  select(starts_with("b_"), sigma)
## # A tibble: 20,000 × 3
##    b_Intercept b_temp_feel_c sigma
##          <dbl>         <dbl> <dbl>
##  1       3457.          80.5 1281.
##  2       3525.          80.3 1240.
##  3       3470.          80.1 1259.
##  4       3500.          80.3 1215 
##  5       3521.          80.7 1336.
##  6       3569.          86.7 1272.
##  7       3562.          87.6 1290.
##  8       3412.          76.7 1271.
##  9       3475.          87.9 1329.
## 10       3490.          74.2 1246.
## # … with 19,990 more rows
…
