bayesf22 Notebook - Reading notes
…
In other types of models, we answered this by looking at the difference between actual \(Y\) and its posterior predictions. That’s a little different here with binary data—our posterior predictions are either right or wrong and don’t have any sort of measurable distance. So we want to know how often we’re right, not how close we are to being right.

Here we’ll get posterior predicted draws for each row in the original dataset (8,000 draws per 1,000 rows). These are a bunch of 1s and 0s, so we’ll take the average of those 1s and 0s to get the overall proportion of predicted 1s for that day, which will be the predicted probability of tomorrow’s rain for that day. We’ll then choose some cutoff point, like 50%, to classify whether we will count that as a prediction of rain tomorrow or not.

prediction_brms_all <- weather |> 
  add_predicted_draws(model_weather_brms)

rain_classifications <- prediction_brms_all |> 
  group_by(.row) |> 
  summarize(rain_prob_that_day = mean(.prediction),
            raintomorrow_actual = raintomorrow[1]) |> 
  mutate(raintomorrow_pred = rain_prob_that_day >= 0.5)
rain_classifications
## # A tibble: 1,000 × 4
##     .row rain_prob_that_day raintomorrow_actual raintomorrow_pred
##    <int>              <dbl> <fct>               <lgl>            
##  1     1             0.128  No                  FALSE            
##  2     2             0.078  No                  FALSE            
##  3     3             0.163  Yes                 FALSE            
##  4     4             0.117  No                  FALSE            
##  5     5             0.181  No                  FALSE            
##  6     6             0.361  No                  FALSE            
##  7     7             0.0912 No                  FALSE            
##  8     8             0.107  No                  FALSE            
##  9     9             0.0842 Yes                 FALSE            
## 10    10             0.432  Yes                 FALSE            
## # … with 990 more rows
…
