bayesf22 Notebook - Reading notes
…
Now each runner has their own intercept and slope!

no_pooling_results <- no_pooling |> 
  mutate(tidied = map(model, ~tidy(., effects = "fixed"))) |> 
  select(-data, -model) |> 
  unnest(tidied) |> 
  filter(term %in% c("(Intercept)", "age")) |> 
  select(runner, term, estimate) |> 
  pivot_wider(names_from = "term", values_from = "estimate") |> 
  rename(beta0 = `(Intercept)`, beta1 = age)

no_pooling_results
## # A tibble: 36 × 3
##    runner  beta0   beta1
##    <chr>   <dbl>   <dbl>
##  1 1      155.   -1.44  
##  2 2       37.3   0.856 
##  3 3       85.8   0.0680
##  4 4       58.0   0.803 
##  5 5        5.74  1.31  
##  6 6       22.9   0.925 
##  7 7       37.9   1.19  
##  8 8        2.36  1.85  
##  9 9       24.6   1.30  
## 10 10      32.4   1.47  
## # … with 26 more rows
…
