bayesf22 Notebook - Reading notes
…
The general setup

The data in this example comes from a sample of music from Spotify. There are 350 songs by 44 different artists:

spotify |> 
  summarize(n_songs = n(),
            n_artists = n_distinct(artist))
## # A tibble: 1 × 2
##   n_songs n_artists
##     <int>     <int>
## 1     350        44

spotify |> 
  count(artist)
## # A tibble: 44 × 2
##    artist            n
##    <fct>         <int>
##  1 Mia X             4
##  2 Chris Goldarg    10
##  3 Soul&Roll         5
##  4 Honeywagon        3
##  5 Röyksopp          4
##  6 Freestyle         3
##  7 DA Image          3
##  8 Jean Juan         5
##  9 TV Noise         14
## 10 Kid Frost         3
## # … with 34 more rows
The main thing we care about in this example is song popularity and its variation within and between artists. We’ll answer three different questions:

What’s the typical popularity of a typical Spotify song?

How much does popularity vary from artist to artist?

For any single artist, how much does popularity vary from song to song?

Popularity is measured on a scale of 0–100, with 100 representing the highest popularity:

spotify %>% 
  group_by(artist) %>% 
  summarize(count = n(), popularity = mean(popularity)) |> 
  arrange(popularity)
## # A tibble: 44 × 3
##    artist        count popularity
##    <fct>         <int>      <dbl>
##  1 Mia X             4       13.2
##  2 Chris Goldarg    10       16.4
##  3 Soul&Roll         5       24.2
##  4 Honeywagon        3       31.7
##  5 Röyksopp          4       33.2
##  6 Freestyle         3       33.7
##  7 DA Image          3       36.7
##  8 Jean Juan         5       36.8
##  9 TV Noise         14       38.1
## 10 Kid Frost         3       40.7
## # … with 34 more rows
…
