bayesf22 Notebook - Reading notes
…
Runner-specific analysis

We could hypothetically extract and visualize all the runner-specific offsets to the slopes and intercepts (with ranef()), but we’ll skip that here and instead look at the runner-specific lines. Each line here is constructed using a unique set of \(\beta_{0_j}\) and \(\beta_{1_j}\) terms for each runner, each based around the global \(\beta_0\) and \(\beta_1\) estimates. To help with the intuition, here are the lines some of the runners:

model_running2_brms |> 
  spread_draws(b_Intercept, b_age_c, r_runner[runner, term]) |> 
  pivot_wider(names_from = "term", values_from = r_runner) |> 
  mutate(runner_intercept = b_Intercept + Intercept,
         runner_age = b_age_c + age_c) |> 
  group_by(runner) |> 
  summarize(across(c(runner_intercept, runner_age), ~median(.)))
## # A tibble: 36 × 3
##    runner runner_intercept runner_age
##     <int>            <dbl>      <dbl>
##  1      1             76.7      0.584
##  2      2             85.3      1.21 
##  3      3             91.4      1.11 
##  4      4            102.       1.56 
##  5      5             78.3      1.20 
##  6      6             75.2      0.892
##  7      7            104.       1.64 
##  8      8            104.       1.76 
##  9      9             96.6      1.63 
## 10     10            114.       2.21 
## # … with 26 more rows
…
